…
```{r}
flights |> 
  mutate(
    status = case_when(
      is.na(arr_delay)      ~ "cancelled",
      arr_delay < -30       ~ "very early",
      arr_delay < -15       ~ "early",
      abs(arr_delay) <= 15  ~ "on time",
      arr_delay < 60        ~ "late",
      arr_delay < Inf       ~ "very late",
    ),
    .keep = "used"
  )
#> # A tibble: 336,776 × 2
#>   arr_delay status 
#>       <dbl> <chr>  
#> 1        11 on time
#> 2        20 late   
#> 3        33 late   
#> 4       -18 early  
#> 5       -25 early  
#> 6        12 on time
#> # ℹ 336,770 more rows
```
…
parse_number usually used for currency and percent

```{r}
x <- c("$1,234", "USD 3,513", "59%")
parse_number(x)
#> [1] 1234 3513   59
```

if you want to see the most common values using count

```{r}
flights |> count(dest, sort = TRUE)
#> # A tibble: 105 × 2
#>   dest      n
#>   <chr> <int>
#> 1 ORD   17283
#> 2 ATL   17215
#> 3 LAX   16174
#> 4 BOS   15508
#> 5 MCO   14082
#> 6 CLT   14064
#> # ℹ 99 more rows
```

`n_distinct(x)` counts the number of distinct (unique) values of one or more variables

```{r}
flights |> 
  group_by(dest) |> 
  summarize(carriers = n_distinct(carrier)) |> 
  arrange(desc(carriers))
#> # A tibble: 105 × 2
#>   dest  carriers
#>   <chr>    <int>
#> 1 ATL          7
#> 2 BOS          7
#> 3 CLT          7
#> 4 ORD          7
#> 5 TPA          7
#> 6 AUS          6
#> # ℹ 99 more rows
```

You can count missing values by combining [`sum()`](https://rdrr.io/r/base/sum.html) and [`is.na()`](https://rdrr.io/r/base/NA.html). In the `flights` dataset this represents flights that are cancelled

```{r}
flights |> 
  group_by(dest) |> 
  summarize(n_cancelled = sum(is.na(dep_time))) 
#> # A tibble: 105 × 2
#>   dest  n_cancelled
#>   <chr>       <int>
#> 1 ABQ             0
#> 2 ACK             0
#> 3 ALB            20
#> 4 ANC             0
#> 5 ATL           317
#> 6 AUS            21
#> # ℹ 99 more rows
```
…
```{r}
df2 <- tibble(x = c("1211", "131", "21"))
df2 |> 
  separate_longer_position(x, width = 1)
#> # A tibble: 9 × 1
#>   x    
#>   <chr>
#> 1 1    
#> 2 2    
#> 3 1    
#> 4 1    
#> 5 1    
#> 6 3    
#> # ℹ 3 more rows
```
…
```{r}
x <- c("Apple", "Banana", "Pear")
str_sub(x, 1, 3)
#> [1] "App" "Ban" "Pea"
```

We could use [`str_sub()`](https://stringr.tidyverse.org/reference/str_sub.html) with [`mutate()`](https://dplyr.tidyverse.org/reference/mutate.html) to find the first and last letter of each name:

```{r}
babynames |> 
  mutate(
    first = str_sub(name, 1, 1),
    last = str_sub(name, -1, -1)
  )
#> # A tibble: 1,924,665 × 7
#>    year sex   name          n   prop first last 
#>   <dbl> <chr> <chr>     <int>  <dbl> <chr> <chr>
#> 1  1880 F     Mary       7065 0.0724 M     y    
#> 2  1880 F     Anna       2604 0.0267 A     a    
#> 3  1880 F     Emma       2003 0.0205 E     a    
#> 4  1880 F     Elizabeth  1939 0.0199 E     h    
#> 5  1880 F     Minnie     1746 0.0179 M     e    
#> 6  1880 F     Margaret   1578 0.0162 M     t    
#> # ℹ 1,924,659 more rows
```
…
